Review of Linear Regression
…
Setting

Chapter 5 of Statistical Interference: A Modern Dive Approach

Palmer Penguins data set

# print out values of the penguin dataset
penguins

## # A tibble: 344 x 8
##    species island    bill_length_mm bill_depth_mm flipper_length_mm body_mass_g
##    <fct>   <fct>              <dbl>         <dbl>             <int>       <int>
##  1 Adelie  Torgersen           39.1          18.7               181        3750
##  2 Adelie  Torgersen           39.5          17.4               186        3800
##  3 Adelie  Torgersen           40.3          18                 195        3250
##  4 Adelie  Torgersen           NA            NA                  NA          NA
##  5 Adelie  Torgersen           36.7          19.3               193        3450
##  6 Adelie  Torgersen           39.3          20.6               190        3650
##  7 Adelie  Torgersen           38.9          17.8               181        3625
##  8 Adelie  Torgersen           39.2          19.6               195        4675
##  9 Adelie  Torgersen           34.1          18.1               193        3475
## 10 Adelie  Torgersen           42            20.2               190        4250
## #  with 334 more rows, and 2 more variables: sex <fct>, year <int>
…
\(y - \hat{y}\): residuals

# generate a table of all the Regression variables for both the y and x axis
get_regression_table(lin_fit)

## # A tibble: 2 x 7
##   term        estimate std_error statistic p_value lower_ci upper_ci
##   <chr>          <dbl>     <dbl>     <dbl>   <dbl>    <dbl>    <dbl>
## 1 intercept    151.        6.58      23.0        0  138.     165.   
## 2 body_mass_g    0.012     0.002      6.80       0    0.008    0.015

# display a table of all data points based on the Regression calculated
get_regression_points(lin_fit)

## # A tibble: 68 x 5
##       ID flipper_length_mm body_mass_g flipper_length_mm_hat residual
##    <int>             <int>       <int>                 <dbl>    <dbl>
##  1     1               192        3500                  193.   -1.05 
##  2     2               196        3900                  198.   -1.81 
##  3     3               193        3650                  195.   -1.83 
##  4     4               188        3525                  193.   -5.35 
##  5     5               197        3725                  196.    1.27 
##  6     6               198        3950                  198.   -0.406
##  7     7               178        3250                  190.  -12.1  
##  8     8               197        3750                  196.    0.975
##  9     9               195        4150                  201.   -5.79 
## 10    10               198        3700                  195.    2.57 
## #  with 58 more rows
…
