hypothesis_testing-adrian_darian.utf8
…
##  Conflicts  tidyverse_conflicts() 
## x dplyr::filter() masks stats::filter()
## x dplyr::lag()    masks stats::lag()

library(infer)
library(moderndive)
library(nycflights13)
library(ggplot2movies)

# movies dataset
movies

## # A tibble: 58,788 x 24
##    title     year length budget rating votes    r1    r2    r3    r4    r5    r6
##    <chr>    <int>  <int>  <int>  <dbl> <int> <dbl> <dbl> <dbl> <dbl> <dbl> <dbl>
##  1 $         1971    121     NA    6.4   348   4.5   4.5   4.5   4.5  14.5  24.5
##  2 $1000 a  1939     71     NA    6      20   0    14.5   4.5  24.5  14.5  14.5
##  3 $21 a D  1941      7     NA    8.2     5   0     0     0     0     0    24.5
##  4 $40,000   1996     70     NA    8.2     6  14.5   0     0     0     0     0  
##  5 $50,000  1975     71     NA    3.4    17  24.5   4.5   0    14.5  14.5   4.5
##  6 $pent     2000     91     NA    4.3    45   4.5   4.5   4.5  14.5  14.5  14.5
##  7 $windle   2002     93     NA    5.3   200   4.5   0     4.5   4.5  24.5  24.5
##  8 '15'      2002     25     NA    6.7    24   4.5   4.5   4.5   4.5   4.5  14.5
##  9 '38       1987     97     NA    6.6    18   4.5   4.5   4.5   0     0     0  
## 10 '49-'17   1917     61     NA    6      51   4.5   0     4.5   4.5   4.5  44.5
## #  with 58,778 more rows, and 12 more variables: r7 <dbl>, r8 <dbl>, r9 <dbl>,
## #   r10 <dbl>, mpaa <chr>, Action <int>, Animation <int>, Comedy <int>,
## #   Drama <int>, Documentary <int>, Romance <int>, Short <int>

# movies_sample dataset
movies_sample

## # A tibble: 68 x 4
##    title                     year rating genre  
##    <chr>                    <int>  <dbl> <chr>  
##  1 Underworld                1985    3.1 Action 
##  2 Love Affair               1932    6.3 Romance
##  3 Junglee                   1961    6.8 Romance
##  4 Eversmile, New Jersey     1989    5   Romance
##  5 Search and Destroy        1979    4   Action 
##  6 Secreto de Romelia, El    1988    4.9 Romance
##  7 Amants du Pont-Neuf, Les  1991    7.4 Romance
##  8 Illicit Dreams            1995    3.5 Action 
##  9 Kabhi Kabhie              1976    7.7 Romance
## 10 Electric Horseman, The    1979    5.8 Romance
## #  with 58 more rows
…
## # A tibble: 2 x 4
##   genre       n mean_rating std_dev
##   <chr>   <int>       <dbl>   <dbl>
## 1 Action     32        5.28    1.36
## 2 Romance    36        6.32    1.61

# specify the data genres and ratings
movies_sample %>% 
  specify(formula = rating ~ genre)

## Response: rating (numeric)
## Explanatory: genre (factor)
## # A tibble: 68 x 2
##    rating genre  
##     <dbl> <fct>  
##  1    3.1 Action 
##  2    6.3 Romance
##  3    6.8 Romance
##  4    5   Romance
##  5    4   Action 
##  6    4.9 Romance
##  7    7.4 Romance
##  8    3.5 Action 
##  9    7.7 Romance
## 10    5.8 Romance
## #  with 58 more rows

# define the null hypothesis
movies_sample %>% 
  specify(formula = rating ~ genre) %>% 
  hypothesize(null = "independence")

## Response: rating (numeric)
## Explanatory: genre (factor)
## Null Hypothesis: independence
## # A tibble: 68 x 2
##    rating genre  
##     <dbl> <fct>  
##  1    3.1 Action 
##  2    6.3 Romance
##  3    6.8 Romance
##  4    5   Romance
##  5    4   Action 
##  6    4.9 Romance
##  7    7.4 Romance
##  8    3.5 Action 
##  9    7.7 Romance
## 10    5.8 Romance
## #  with 58 more rows

# generate replicates
movies_sample %>% 
  specify(formula = rating ~ genre) %>% 
  hypothesize(null = "independence") %>% 
  generate(reps = 1000, type = "permute")

## Response: rating (numeric)
## Explanatory: genre (factor)
## Null Hypothesis: independence
## # A tibble: 68,000 x 3
## # Groups:   replicate [1,000]
##    rating genre   replicate
##     <dbl> <fct>       <int>
##  1    5.1 Action          1
##  2    5.7 Romance         1
##  3    8   Romance         1
##  4    7.1 Romance         1
##  5    3.5 Action          1
##  6    7.8 Romance         1
##  7    5.8 Romance         1
##  8    5.9 Action          1
##  9    6   Romance         1
## 10    5.5 Romance         1
## #  with 67,990 more rows

# calculate the summary statistics
null_distribution_movies <- movies_sample %>% 
  specify(formula = rating ~ genre) %>% 
  hypothesize(null = "independence") %>% 
  generate(reps = 1000, type = "permute") %>% 
  calculate(stat = "diff in means", order = c("Action", "Romance"))
null_distribution_movies

## # A tibble: 1,000 x 2
##    replicate    stat
##        <int>   <dbl>
##  1         1  0.275 
##  2         2  0.281 
##  3         3 -0.162 
##  4         4 -0.392 
##  5         5 -0.463 
##  6         6 -0.439 
##  7         7  0.181 
##  8         8 -0.0792
##  9         9  0.434 
## 10        10  0.647 
## #  with 990 more rows
…
